…
### Competing Theories
#### The Dataset
The following models will be trained three times each: once on the data from experiment 1.1, once on the data from experiment 1.2, and once on a unified dataset. All datasets are aggregated by participant means within each condition.

```r
> d_agg
# A tibble: 152 × 9
# Groups:   ID, condition, cue, probe, p_global, p_conditional [152]
       ID condition cue   probe p_global p_conditional best_guess    RT correct
    <int> <chr>     <chr> <chr>    <dbl>         <dbl>      <dbl> <dbl>   <dbl>
 1 166623 AX        A     X         0.68           0.8          1  358.       1
 2 166623 AY        A     Y         0.32           0.2          0  401.       1
 3 166623 BX        B     X         0.68           0.2          0  409.       1
 4 166623 BY        B     Y         0.32           0.8          1  333.       1
 5 166626 AX        A     X         0.68           0.8          1  493.       1
 6 166626 AY        A     Y         0.32           0.2          0  536.       1
 7 166626 BX        B     X         0.68           0.2          0  529.       1
 8 166626 BY        B     Y         0.32           0.8          1  516.       1
 9 166640 AX        A     X         0.68           0.8          1  460.       1
10 166640 AY        A     Y         0.32           0.2          0  552        1
# … with 142 more rows
```
…
